<svg xmlns="http://www.w3.org/2000/svg" width="30" height="30" viewBox="0 0 30 30">
    <g fill="none" fill-rule="evenodd">
        <g>
            <g>
                <g transform="translate(-25 -325) translate(0 310) translate(25 15)">
                    <path d="M0 0H30V30H0z"/>
                    <path fill="#ACB4D7" d="M10 18h10c1.657 0 3 1.343 3 3v2H7v-2c0-1.657 1.343-3 3-3z"/>
                    <circle cx="15" cy="11.5" r="4.5" fill="#ACB4D7"/>
                </g>
            </g>
        </g>
    </g>
</svg>
