<?xml version="1.0" encoding="UTF-8"?>
<svg width="21px" height="26px" viewBox="0 0 21 26" version="1.1" xmlns="http://www.w3.org/2000/svg" xmlns:xlink="http://www.w3.org/1999/xlink">
    <title></title>
    <g id="로그인/회원가입_최공완료본" stroke="none" stroke-width="1" fill="none" fill-rule="evenodd">
        <g id="signin_logo" transform="translate(-178.000000, -584.000000)" fill="#747EAF" fill-rule="nonzero">
            <path d="M188.796875,589.846154 C189.90625,589.846154 191.296875,589.073109 192.125,588.042382 C192.875,587.108286 193.421875,585.803772 193.421875,584.499258 C193.421875,584.322102 193.40625,584.144946 193.375,584 C192.140625,584.048315 190.65625,584.853571 189.765625,585.932613 C189.0625,586.753973 188.421875,588.042382 188.421875,589.363001 C188.421875,589.556262 188.453125,589.749523 188.46875,589.813944 C188.546875,589.830049 188.671875,589.846154 188.796875,589.846154 Z M184.890625,609.333333 C186.40625,609.333333 187.078125,608.286501 188.96875,608.286501 C190.890625,608.286501 191.3125,609.301123 193,609.301123 C194.65625,609.301123 195.765625,607.722823 196.8125,606.176732 C197.984375,604.405171 198.46875,602.665819 198.5,602.585293 C198.390625,602.553083 195.21875,601.216359 195.21875,597.463869 C195.21875,594.210638 197.71875,592.745073 197.859375,592.632337 C196.203125,590.184361 193.6875,590.119941 193,590.119941 C191.140625,590.119941 189.625,591.279508 188.671875,591.279508 C187.640625,591.279508 186.28125,590.184361 184.671875,590.184361 C181.609375,590.184361 178.5,592.793388 178.5,597.721551 C178.5,600.781522 179.65625,604.018648 181.078125,606.112312 C182.296875,607.883874 183.359375,609.333333 184.890625,609.333333 Z" id=""></path>
        </g>
    </g>
</svg>